"","Jurisdiction","DRIVING_AVERAGE","FAKEID_TOTAL","FURNISH_TOTAL","TOTAL","PURCHASE_TOTAL","SELL_TOTAL","SERVE_TOTAL","STRICT_INDEX","StateName","Alcohol.use.in.past.month..ages.12.20"
"1","AK",0,3,-2,-4,1,63,126,187,"Alaska",21.47
"2","AL",5,1,1,2,1,22,121,153,"Alabama",22.76
"3","AR",3.5,5,-3,1,2,57,120,185.5,"Arkansas",18.07
"4","AZ",4,3,1,2,1,49,114,174,"Arizona",22.01
"5","CA",4,4,1,-5,1,1,117,123,"California",23.07
"6","CO",5,5,-1,-3,2,63,109,180,"Colorado",26.95
"7","CT",3,3,-3,-3,1,51,108,160,"Connecticut",26.29
"8","DE",4,1,-2,-4,1,63,120,183,"Delaware",23.14
"9","FL",4,2,1,1,2,18,108,136,"Florida",22.08
"10","GA",3,3,-1,-1,2,0,108,114,"Georgia",20.25
"11","HI",4.5,2,-1,-2,1,55,109,168.5,"Hawaii",21.07
"12","IA",3,3,-1,-1,2,50,108,164,"Iowa",26.9
"13","ID",5,4,1,0,2,57,114,183,"Idaho",19.38
"14","IL",5,4,1,-2,1,54,108,171,"Illinois",22.65
"15","IN",4,3,1,2,0,58,121,189,"Indiana",22.76
"16","KS",5,3,1,3,1,63,118,194,"Kansas",22.23
"17","KY",0,2,-1,1,2,59,120,183,"Kentucky",19.59
"18","LA",5,2,-3,-10,2,1,108,105,"Louisiana",22.72
"19","MA",3,4,-3,-1,2,54,108,167,"Massachusetts",30.44
"20","MD",3,2,-2,-4,2,57,111,169,"Maryland",22.6
"21","ME",0,4,-1,-2,2,52,103,158,"Maine",24.89
"22","MI",0,3,1,3,1,54,108,170,"Michigan",23.93
"23","MN",0,4,-1,-2,2,54,108,165,"Minnesota",24.07
"24","MO",4,4,-1,2,1,55,117,182,"Missouri",21.84
"25","MS",4,1,-3,-3,2,63,117,181,"Mississippi",20.13
"26","MT",4,3,-1,-2,2,54,108,168,"Montana",24.43
"27","NC",3,5,1,3,2,18,111,143,"North Carolina",17.9
"28","ND",0,3,1,2,2,63,118,189,"North Dakota",28.44
"29","NE",3,4,1,-2,1,57,114,178,"Nebraska",22.42
"30","NH",3,4,1,2,2,49,108,169,"New Hampshire",30.94
"31","NJ",3,3,-1,-2,2,54,108,167,"New Jersey",24.91
"32","NM",3,3,-2,-2,2,63,120,187,"New Mexico",19.04
"33","NV",4,4,-1,-5,2,49,126,179,"Nevada",23.94
"34","NY",0,3,1,-1,1,19,108,131,"New York",24.36
"35","OH",0,5,-3,-6,1,54,118,169,"Ohio",23.55
"36","OK",3,2,1,-1,1,63,117,186,"Oklahoma",21.5
"37","OR",4,3,-1,-2,1,54,108,167,"Oregon",25.84
"38","PA",5,4,1,2,1,54,108,175,"Pennsylvania",26.18
"39","RI",3,5,-1,1,1,54,108,171,"Rhode Island",31.07
"40","SC",5,2,-2,-1,1,21,117,143,"South Carolina",19.8
"41","SD",4,2,-3,-6,2,42,118,159,"South Dakota",24.59
"42","TN",4.5,2,1,2,1,54,108,172.5,"Tennessee",18.39
"43","TX",5,3,-3,-6,1,53,108,161,"Texas",20.99
"44","UT",5,7,1,3,1,63,126,206,"Utah",13.38
"45","VA",5,2,-2,-5,2,0,117,119,"Virginia",21.71
"46","VT",0,2,1,2,1,32,108,146,"Vermont",29.86
"47","WA",5,3,-1,-2,2,55,118,180,"Washington",23.07
"48","WI",4,6,-3,-6,1,54,108,164,"Wisconsin",27.73
"49","WV",0,3,-3,2,1,54,109,166,"West Virginia",20.31
"50","WY",3,2,-3,-9,1,63,117,174,"Wyoming",22.81
